589561 499081 470
908086 391900 525
457979 948123 525
780612 994868 525
277276 124097 443
685769 832315 504
2592 862314 525
441493 517256 470
912188 483502 525
279637 645979 509
788277 340947 509
844263 624833 525
941398 784102 525
180511 625560 470
860365 7442 525
700824 944596 525
175708 706676 509
148711 351118 443
322078 50389 443
14258 318856 443
286370 987858 525
739418 409076 509
970783 568166 525
51800 670735 509
611269 790151 509
21179 767769 509
123372 826678 509
394560 700040 509
199351 28669 383
869677 94562 525
104097 847989 525
132533 610396 470
691845 465530 509
152282 542797 470
425022 898777 525
946973 461058 525
289815 179151 443
607558 900760 525
994145 737511 525
117017 479180 449
516878 747668 509
865622 675625 525
524971 76877 470
145873 104734 375
303531 640657 509
338573 824564 509
594156 282663 470
701281 327150 509
783414 297174 509
690102 197433 509
922417 174796 525
934790 836369 525
520665 371068 470
715927 564386 509
98672 287865 443
132553 581958 470
188765 96891 383
372901 96429 443
512110 574431 452
254663 544448 470
211181 779065 509
809949 155690 509
428727 19691 449
925988 83096 525
573129 403363 470
658625 514234 509
358034 112607 443
499334 86921 449
353451 703674 509
357957 566701 470
140161 341286 443
799531 209952 509
711584 869062 525
277255 878937 525
505517 6729 449
510751 557951 470
421287 163917 449
872370 106672 525
18753 57500 340
293316 630003 509
798765 915164 525
634037 75000 509
741637 350564 509
913065 534007 525
555380 244974 470
459393 870181 525
439901 651133 509
40744 265637 443
91407 92423 333
98030 144269 375
798136 211710 509
890994 434092 525
881032 164143 525
769801 948567 525
96448 199468 383
736479 233309 509
304924 630444 509
953923 308674 525
10881 516380 470
721906 576783 509
914932 542796 525
315130 690069 509
231986 736148 509
185386 70136 383
723464 590662 509
154099 774569 509
715126 358228 509
941280 422040 525
858242 616428 525
553573 812407 509
920279 563962 525
791898 908291 525
141833 600359 470
213157 123428 383
60507 601845 470
90896 101792 341
7820 690049 509
469492 156558 449
565832 123463 470
485386 654779 509
862720 79683 525
854888 145796 525
943792 904995 507
306440 710050 509
953158 606443 525
338078 724989 509
180486 518817 470
586413 648428 509
720802 536586 509
899218 575331 525
609496 625312 447
57684 807923 509
437335 540779 470
239583 44368 443
407567 210417 443
861386 721249 525
980022 612059 525
209316 89358 383
589961 627133 509
397647 883479 525
732294 637329 504
672726 975669 525
992387 275309 525
711823 655710 504
780367 565294 509
908637 964371 507
621639 641542 509
815571 486140 509
484720 150975 449
799710 777724 468
